{
	"info": {
		"_postman_id": "6db7ff3d-8b24-4c57-a56c-3f8a0e6a7949",
		"name": "comment-collection",
		"description": "a collection to test the comment-microservice",
		"schema": "https://schema.getpostman.com/json/collection/v2.1.0/collection.json"
	},
	"item": [
		{
			"name": "POST /v1/comments",
			"event": [
				{
					"listen": "test",
					"script": {
						"id": "02df0d9f-333b-4996-a45f-425f664ced38",
						"exec": [
							"pm.test(\"Status code is 201\", function () {",
							"    pm.response.to.have.status(201);",
							"});"
						],
						"type": "text/javascript"
					}
				}
			],
			"request": {
				"method": "POST",
				"header": [
					{
						"key": "Content-Type",
						"name": "Content-Type",
						"value": "application/json",
						"type": "text"
					}
				],
				"body": {
					"mode": "raw",
					"raw": "[\n\t{\n\t\t\"content\": \"Une super aventure\",\n\t\t\"userId\": 1,\n\t\t\"itemId\": 1\n\t},\n\t{\n\t\t\"content\": \"trop bien\",\n\t\t\"userId\": 2,\n\t\t\"itemId\": 1\n\t},\n\t{\n\t\t\"content\": \"super top\",\n\t\t\"userId\": 3,\n\t\t\"itemId\": 2\n\t}\n\t]"
				},
				"url": {
					"raw": "{{host}}:{{port}}/{{context-path}}/comments",
					"host": [
						"{{host}}"
					],
					"port": "{{port}}",
					"path": [
						"{{context-path}}",
						"comments"
					]
				}
			},
			"response": []
		},
		{
			"name": "PUT /v1/comments",
			"event": [
				{
					"listen": "test",
					"script": {
						"id": "7afde96b-fc9b-489b-882a-f9abec21d79f",
						"exec": [
							"pm.test(\"Status code is 204\", function () {",
							"    pm.response.to.have.status(204);",
							"});"
						],
						"type": "text/javascript"
					}
				}
			],
			"request": {
				"method": "PUT",
				"header": [
					{
						"key": "Content-Type",
						"name": "Content-Type",
						"type": "text",
						"value": "application/json"
					}
				],
				"body": {
					"mode": "raw",
					"raw": "[\n    {\n    \t\"id\": 1,\n        \"content\": \"Une géniale aventure\",\n        \"userId\": 1,\n        \"itemId\": 1\n    }\n]"
				},
				"url": {
					"raw": "{{host}}:{{port}}/{{context-path}}/comments",
					"host": [
						"{{host}}"
					],
					"port": "{{port}}",
					"path": [
						"{{context-path}}",
						"comments"
					]
				}
			},
			"response": []
		},
		{
			"name": "Get /comments pages",
			"event": [
				{
					"listen": "test",
					"script": {
						"id": "381248cf-ad2c-4231-8773-5eb4fea2c37f",
						"exec": [
							"pm.test(\"Status code is 200\", function () {",
							"    pm.response.to.have.status(200);",
							"});",
							"",
							"pm.test(\"length = 2\", function () {",
							"    var jsonData = pm.response.json();",
							"    pm.expect(jsonData.length).to.eql(2);",
							"});"
						],
						"type": "text/javascript"
					}
				}
			],
			"request": {
				"method": "GET",
				"header": [
					{
						"key": "Content-Type",
						"name": "Content-Type",
						"type": "text",
						"value": "application/json"
					}
				],
				"body": {
					"mode": "raw",
					"raw": ""
				},
				"url": {
					"raw": "{{host}}:{{port}}/{{context-path}}/comments?page=0&size=2",
					"host": [
						"{{host}}"
					],
					"port": "{{port}}",
					"path": [
						"{{context-path}}",
						"comments"
					],
					"query": [
						{
							"key": "page",
							"value": "0"
						},
						{
							"key": "size",
							"value": "2"
						}
					]
				},
				"description": "get all the comments"
			},
			"response": []
		},
		{
			"name": "Get /comments?itemId=1",
			"event": [
				{
					"listen": "test",
					"script": {
						"id": "381248cf-ad2c-4231-8773-5eb4fea2c37f",
						"exec": [
							"pm.test(\"Status code is 200\", function () {",
							"    pm.response.to.have.status(200);",
							"});",
							"",
							"pm.test(\"length = 2\", function () {",
							"    var jsonData = pm.response.json();",
							"    pm.expect(jsonData.length).to.eql(2);",
							"});",
							"",
							"pm.test(\"only itemId == 1\", function () {",
							"    var jsonData = pm.response.json();",
							"    for (var comment of jsonData) {",
							"        pm.expect(comment.itemId).to.eql(1);",
							"    }",
							"});"
						],
						"type": "text/javascript"
					}
				}
			],
			"request": {
				"method": "GET",
				"header": [
					{
						"key": "Content-Type",
						"name": "Content-Type",
						"type": "text",
						"value": "application/json"
					}
				],
				"body": {
					"mode": "raw",
					"raw": ""
				},
				"url": {
					"raw": "{{host}}:{{port}}/{{context-path}}/comments?itemId=1&filter=true",
					"host": [
						"{{host}}"
					],
					"port": "{{port}}",
					"path": [
						"{{context-path}}",
						"comments"
					],
					"query": [
						{
							"key": "itemId",
							"value": "1"
						},
						{
							"key": "filter",
							"value": "true"
						}
					]
				},
				"description": "get all the comments"
			},
			"response": []
		},
		{
			"name": "DELETE /v1/comments",
			"event": [
				{
					"listen": "test",
					"script": {
						"id": "d91c26fa-f300-4be7-ba01-e1b95b68dbfc",
						"exec": [
							"pm.test(\"Status code is 204\", function () {",
							"    pm.response.to.have.status(204);",
							"});"
						],
						"type": "text/javascript"
					}
				}
			],
			"request": {
				"method": "DELETE",
				"header": [
					{
						"key": "Content-Type",
						"name": "Content-Type",
						"value": "application/json",
						"type": "text"
					}
				],
				"body": {
					"mode": "raw",
					"raw": "{\n\t\"id\":3\n}"
				},
				"url": {
					"raw": "{{host}}:{{port}}/{{context-path}}/comments",
					"host": [
						"{{host}}"
					],
					"port": "{{port}}",
					"path": [
						"{{context-path}}",
						"comments"
					]
				},
				"description": "delete message with id from the body"
			},
			"response": []
		},
		{
			"name": "Get /comments",
			"event": [
				{
					"listen": "test",
					"script": {
						"id": "381248cf-ad2c-4231-8773-5eb4fea2c37f",
						"exec": [
							"pm.test(\"Status code is 200\", function () {",
							"    pm.response.to.have.status(200);",
							"});",
							"",
							"pm.test(\"length = 2\", function () {",
							"    var jsonData = pm.response.json();",
							"    pm.expect(jsonData.length).to.eql(2);",
							"});",
							"",
							"pm.test(\"id==1 is updated\", function () {",
							"    var jsonData = pm.response.json();",
							"    for (var comment of jsonData) {",
							"        if (comment.id === 1) {",
							"            pm.expect(comment.content).to.eql(\"Une géniale aventure\");",
							"        }",
							"    }",
							"});"
						],
						"type": "text/javascript"
					}
				}
			],
			"request": {
				"method": "GET",
				"header": [
					{
						"key": "Content-Type",
						"name": "Content-Type",
						"value": "application/json",
						"type": "text"
					}
				],
				"body": {
					"mode": "raw",
					"raw": ""
				},
				"url": {
					"raw": "{{host}}:{{port}}/{{context-path}}/comments",
					"host": [
						"{{host}}"
					],
					"port": "{{port}}",
					"path": [
						"{{context-path}}",
						"comments"
					]
				},
				"description": "get all the comments"
			},
			"response": []
		}
	]
}
