{
	"id": "0786c885-9272-42c6-a7c9-a17aa5e9e516",
	"name": "local",
	"values": [
		{
			"key": "host",
			"value": "localhost",
			"description": "",
			"enabled": true
		},
		{
			"key": "port",
			"value": "8080",
			"description": "",
			"enabled": true
        },
		{
			"key": "context-path",
			"value": "v1",
			"description": "",
			"enabled": true
        }
	],
	"_postman_variable_scope": "environment",
	"_postman_exported_at": "2019-01-05T23:26:45.836Z",
	"_postman_exported_using": "Postman/6.5.3"
}
